// Jest Snapshot v1, https://goo.gl/fbAQLP

exports[`getUser.js testing user id=1 data 1`] = `
Object {
  "city": "Carrollton",
  "company": "Bosco and Sons",
  "email": "Torey30@hotmail.com",
  "id": 1,
  "name": "Hayden Zieme",
}
`;
